uart_fbga_simple.sim/sim_1/behav/xsim/uart_tb.vcd
$date
   Tue Sep 23 16:41:01 2025
$end

$version
  2024.2.0
  $dumpfile ("uart_tb.vcd") 
$end

$timescale
  1ps
$end

$scope module tb_uart_loopback $end
$var reg 1 ! clk $end
$var reg 1 " rst $end
$var wire 1 # baud_tick $end
$var wire 1 $ sample_tick $end
$var reg 1 % send $end
$var reg 8 & data_in [7:0] $end
$var wire 1 ' tx $end
$var wire 1 ( tx_busy $end
$var wire 8 ) rx_data [7:0] $end
$var wire 1 * rx_valid $end
$var integer 32 + i [31:0] $end
$scope module u_baud $end
$var wire 1 , clk $end
$var wire 1 - rst $end
$var reg 1 . baud_tick $end
$var reg 1 / sample_tick $end
$var reg 32 0 baud_cnt [31:0] $end
$var reg 32 1 sample_cnt [31:0] $end
$upscope $end
$scope module u_tx $end
$var wire 1 2 clk $end
$var wire 1 3 rst $end
$var wire 1 # baud_tick $end
$var wire 8 4 data_in [7:0] $end
$var wire 1 5 send $end
$var reg 1 6 tx $end
$var reg 1 7 busy $end
$var reg 2 8 state [1:0] $end
$var reg 4 9 bit_idx [3:0] $end
$var reg 8 : shreg [7:0] $end
$upscope $end
$scope module u_rx $end
$var wire 1 ; clk $end
$var wire 1 < rst $end
$var wire 1 $ sample_tick $end
$var wire 1 ' rx $end
$var reg 8 = data_out [7:0] $end
$var reg 1 > data_valid $end
$var reg 2 ? rx_sync [1:0] $end
$var reg 2 @ state [1:0] $end
$var reg 5 A samp_cnt [4:0] $end
$var reg 4 B bit_idx [3:0] $end
$var reg 8 C shreg [7:0] $end
$upscope $end
$upscope $end
$enddefinitions $end

#0
$dumpvars
0!
1"
x#
x$
0%
b0 &
x'
x(
bx )
x*
bx +
0,
1-
x.
x/
b0 0
b0 1
02
13
b0 4
05
x6
x7
bx 8
bx 9
bx :
0;
1<
bx =
x>
bx ?
bx @
bx A
bx B
bx C
$end

#10000
1!
0#
0$
1'
0(
b0 )
0*
1,
0.
0/
12
16
07
b0 8
b0 9
b0 :
1;
b0 =
0>
b0 @
b0 A
b0 B
b0 C

#20000
0!
0,
02
0;

#30000
1!
1,
12
1;
bx1 ?

#40000
0!
0,
02
0;

#50000
1!
1,
12
1;
b11 ?

#60000
0!
0,
02
0;

#70000
1!
1,
12
1;

#80000
0!
0,
02
0;

#90000
1!
0"
1#
1$
b0 +
1,
0-
1.
1/
b110110001 0
b11010 1
12
03
1;
0<

#100000
0!
0,
02
0;

#110000
1!
0#
0$
1%
b1010101 &
1,
0.
0/
b110110000 0
b11001 1
12
b1010101 4
15
1;

#120000
0!
0,
02
0;

#130000
1!
0%
1(
1,
b110101111 0
b11000 1
12
05
17
b1 8
b1010101 :
1;

#140000
0!
0,
02
0;

#150000
1!
1,
b110101110 0
b10111 1
12
1;

#160000
0!
0,
02
0;

#170000
1!
1,
b110101101 0
b10110 1
12
1;

#180000
0!
0,
02
0;

#190000
1!
1,
b110101100 0
b10101 1
12
1;

#200000
0!
0,
02
0;

#210000
1!
1,
b110101011 0
b10100 1
12
1;

#220000
0!
0,
02
0;

#230000
1!
1,
b110101010 0
b10011 1
12
1;

#240000
0!
0,
02
0;

#250000
1!
1,
b110101001 0
b10010 1
12
1;

#260000
0!
0,
02
0;

#270000
1!
1,
b110101000 0
b10001 1
12
1;

#280000
0!
0,
02
0;

#290000
1!
1,
b110100111 0
b10000 1
12
1;

#300000
0!
0,
02
0;

#310000
1!
1,
b110100110 0
b1111 1
12
1;

#320000
0!
0,
02
0;

#330000
1!
1,
b110100101 0
b1110 1
12
1;

#340000
0!
0,
02
0;

#350000
1!
1,
b110100100 0
b1101 1
12
1;

#360000
0!
0,
02
0;

#370000
1!
1,
b110100011 0
b1100 1
12
1;

#380000
0!
0,
02
0;

#390000
1!
1,
b110100010 0
b1011 1
12
1;

#400000
0!
0,
02
0;

#410000
1!
1,
b110100001 0
b1010 1
12
1;

#420000
0!
0,
02
0;

#430000
1!
1,
b110100000 0
b1001 1
12
1;

#440000
0!
0,
02
0;

#450000
1!
1,
b110011111 0
b1000 1
12
1;

#460000
0!
0,
02
0;

#470000
1!
1,
b110011110 0
b111 1
12
1;

#480000
0!
0,
02
0;

#490000
1!
1,
b110011101 0
b110 1
12
1;

#500000
0!
0,
02
0;

#510000
1!
1,
b110011100 0
b101 1
12
1;

#520000
0!
0,
02
0;

#530000
1!
1,
b110011011 0
b100 1
12
1;

#540000
0!
0,
02
0;

#550000
1!
1,
b110011010 0
b11 1
12
1;

#560000
0!
0,
02
0;

#570000
1!
1,
b110011001 0
b10 1
12
1;

#580000
0!
0,
02
0;

#590000
1!
1,
b110011000 0
b1 1
12
1;

#600000
0!
0,
02
0;

#610000
1!
1,
b110010111 0
b0 1
12
1;

#620000
0!
0,
02
0;

#630000
1!
1$
1,
1/
b110010110 0
b11010 1
12
1;

#640000
0!
0,
02
0;

#650000
1!
0$
1,
0/
b110010101 0
b11001 1
12
1;

#660000
0!
0,
02
0;

#670000
1!
1,
b110010100 0
b11000 1
12
1;

#680000
0!
0,
02
0;

#690000
1!
1,
b110010011 0
b10111 1
12
1;

#700000
0!
0,
02
0;

#710000
1!
1,
b110010010 0
b10110 1
12
1;

#720000
0!
0,
02
0;

#730000
1!
1,
b110010001 0
b10101 1
12
1;

#740000
0!
0,
02
0;

#750000
1!
1,
b110010000 0
b10100 1
12
1;

#760000
0!
0,
02
0;

#770000
1!
1,
b110001111 0
b10011 1
12
1;

#780000
0!
0,
02
0;

#790000
1!
1,
b110001110 0
b10010 1
12
1;

#800000
0!
0,
02
0;

#810000
1!
1,
b110001101 0
b10001 1
12
1;

#820000
0!
0,
02
0;

#830000
1!
1,
b110001100 0
b10000 1
12
1;

#840000
0!
0,
02
0;

#850000
1!
1,
b110001011 0
b1111 1
12
1;

#860000
0!
0,
02
0;

#870000
1!
1,
b110001010 0
b1110 1
12
1;

#880000
0!
0,
02
0;

#890000
1!
1,
b110001001 0
b1101 1
12
1;

#900000
0!
0,
02
0;

#910000
1!
1,
b110001000 0
b1100 1
12
1;

#920000
0!
0,
02
0;

#930000
1!
1,
b110000111 0
b1011 1
12
1;

#940000
0!
0,
02
0;

#950000
1!
1,
b110000110 0
b1010 1
12
1;

#960000
0!
0,
02
0;

#970000
1!
1,
b110000101 0
b1001 1
12
1;

#980000
0!
0,
02
0;

#990000
1!
1,
b110000100 0
b1000 1
12
1;

#1000000
0!
0,
02
0;

#1010000
1!
1,
b110000011 0
b111 1
12
1;

#1020000
0!
0,
02
0;

#1030000
1!
1,
b110000010 0
b110 1
12
1;

#1040000
0!
0,
02
0;

#1050000
1!
1,
b110000001 0
b101 1
12
1;

#1060000
0!
0,
02
0;

#1070000
1!
1,
b110000000 0
b100 1
12
1;

#1080000
0!
0,
02
0;

#1090000
1!
1,
b101111111 0
b11 1
12
1;

#1100000
0!
0,
02
0;

#1110000
1!
1,
b101111110 0
b10 1
12
1;

#1120000
0!
0,
02
0;

#1130000
1!
1,
b101111101 0
b1 1
12
1;

#1140000
0!
0,
02
0;

#1150000
1!
1,
b101111100 0
b0 1
12
1;

#1160000
0!
0,
02
0;

#1170000
1!
1$
1,
1/
b101111011 0
b11010 1
12
1;

#1180000
0!
0,
02
0;

#1190000
1!
0$
1,
0/
b101111010 0
b11001 1
12
1;

#1200000
0!
0,
02
0;

#1210000
1!
1,
b101111001 0
b11000 1
12
1;

#1220000
0!
0,
02
0;

#1230000
1!
1,
b101111000 0
b10111 1
12
1;

#1240000
0!
0,
02
0;

#1250000
1!
1,
b101110111 0
b10110 1
12
1;

#1260000
0!
0,
02
0;

#1270000
1!
1,
b101110110 0
b10101 1
12
1;

#1280000
0!
0,
02
0;

#1290000
1!
1,
b101110101 0
b10100 1
12
1;

#1300000
0!
0,
02
0;

#1310000
1!
1,
b101110100 0
b10011 1
12
1;

#1320000
0!
0,
02
0;

#1330000
1!
1,
b101110011 0
b10010 1
12
1;

#1340000
0!
0,
02
0;

#1350000
1!
1,
b101110010 0
b10001 1
12
1;

#1360000
0!
0,
02
0;

#1370000
1!
1,
b101110001 0
b10000 1
12
1;

#1380000
0!
0,
02
0;

#1390000
1!
1,
b101110000 0
b1111 1
12
1;

#1400000
0!
0,
02
0;

#1410000
1!
1,
b101101111 0
b1110 1
12
1;

#1420000
0!
0,
02
0;

#1430000
1!
1,
b101101110 0
b1101 1
12
1;

#1440000
0!
0,
02
0;

#1450000
1!
1,
b101101101 0
b1100 1
12
1;

#1460000
0!
0,
02
0;

#1470000
1!
1,
b101101100 0
b1011 1
12
1;

#1480000
0!
0,
02
0;

#1490000
1!
1,
b101101011 0
b1010 1
12
1;

#1500000
0!
0,
02
0;

#1510000
1!
1,
b101101010 0
b1001 1
12
1;

#1520000
0!
0,
02
0;

#1530000
1!
1,
b101101001 0
b1000 1
12
1;

#1540000
0!
0,
02
0;

#1550000
1!
1,
b101101000 0
b111 1
12
1;

#1560000
0!
0,
02
0;

#1570000
1!
1,
b101100111 0
b110 1
12
1;

#1580000
0!
0,
02
0;

#1590000
1!
1,
b101100110 0
b101 1
12
1;

#1600000
0!
0,
02
0;

#1610000
1!
1,
b101100101 0
b100 1
12
1;

#1620000
0!
0,
02
0;

#1630000
1!
1,
b101100100 0
b11 1
12
1;

#1640000
0!
0,
02
0;

#1650000
1!
1,
b101100011 0
b10 1
12
1;

#1660000
0!
0,
02
0;

#1670000
1!
1,
b101100010 0
b1 1
12
1;

#1680000
0!
0,
02
0;

#1690000
1!
1,
b101100001 0
b0 1
12
1;

#1700000
0!
0,
02
0;

#1710000
1!
1$
1,
1/
b101100000 0
b11010 1
12
1;

#1720000
0!
0,
02
0;

#1730000
1!
0$
1,
0/
b101011111 0
b11001 1
12
1;

#1740000
0!
0,
02
0;

#1750000
1!
1,
b101011110 0
b11000 1
12
1;

#1760000
0!
0,
02
0;

#1770000
1!
1,
b101011101 0
b10111 1
12
1;

#1780000
0!
0,
02
0;

#1790000
1!
1,
b101011100 0
b10110 1
12
1;

#1800000
0!
0,
02
0;

#1810000
1!
1,
b101011011 0
b10101 1
12
1;

#1820000
0!
0,
02
0;

#1830000
1!
1,
b101011010 0
b10100 1
12
1;

#1840000
0!
0,
02
0;

#1850000
1!
1,
b101011001 0
b10011 1
12
1;

#1860000
0!
0,
02
0;

#1870000
1!
1,
b101011000 0
b10010 1
12
1;

#1880000
0!
0,
02
0;

#1890000
1!
1,
b101010111 0
b10001 1
12
1;

#1900000
0!
0,
02
0;

#1910000
1!
1,
b101010110 0
b10000 1
12
1;

#1920000
0!
0,
02
0;

#1930000
1!
1,
b101010101 0
b1111 1
12
1;

#1940000
0!
0,
02
0;

#1950000
1!
1,
b101010100 0
b1110 1
12
1;

#1960000
0!
0,
02
0;

#1970000
1!
1,
b101010011 0
b1101 1
12
1;

#1980000
0!
0,
02
0;

#1990000
1!
1,
b101010010 0
b1100 1
12
1;

#2000000
0!
0,
02
0;

#2010000
1!
1,
b101010001 0
b1011 1
12
1;

#2020000
0!
0,
02
0;

#2030000
1!
1,
b101010000 0
b1010 1
12
1;

#2040000
0!
0,
02
0;

#2050000
1!
1,
b101001111 0
b1001 1
12
1;

#2060000
0!
0,
02
0;

#2070000
1!
1,
b101001110 0
b1000 1
12
1;

#2080000
0!
0,
02
0;

#2090000
1!
1,
b101001101 0
b111 1
12
1;

#2100000
0!
0,
02
0;

#2110000
1!
1,
b101001100 0
b110 1
12
1;

#2120000
0!
0,
02
0;

#2130000
1!
1,
b101001011 0
b101 1
12
1;

#2140000
0!
0,
02
0;

#2150000
1!
1,
b101001010 0
b100 1
12
1;

#2160000
0!
0,
02
0;

#2170000
1!
1,
b101001001 0
b11 1
12
1;

#2180000
0!
0,
02
0;

#2190000
1!
1,
b101001000 0
b10 1
12
1;

#2200000
0!
0,
02
0;

#2210000
1!
1,
b101000111 0
b1 1
12
1;

#2220000
0!
0,
02
0;

#2230000
1!
1,
b101000110 0
b0 1
12
1;

#2240000
0!
0,
02
0;

#2250000
1!
1$
1,
1/
b101000101 0
b11010 1
12
1;

#2260000
0!
0,
02
0;

#2270000
1!
0$
1,
0/
b101000100 0
b11001 1
12
1;

#2280000
0!
0,
02
0;

#2290000
1!
1,
b101000011 0
b11000 1
12
1;

#2300000
0!
0,
02
0;

#2310000
1!
1,
b101000010 0
b10111 1
12
1;

#2320000
0!
0,
02
0;

#2330000
1!
1,
b101000001 0
b10110 1
12
1;

#2340000
0!
0,
02
0;

#2350000
1!
1,
b101000000 0
b10101 1
12
1;

#2360000
0!
0,
02
0;

#2370000
1!
1,
b100111111 0
b10100 1
12
1;

#2380000
0!
0,
02
0;

#2390000
1!
1,
b100111110 0
b10011 1
12
1;

#2400000
0!
0,
02
0;

#2410000
1!
1,
b100111101 0
b10010 1
12
1;

#2420000
0!
0,
02
0;

#2430000
1!
1,
b100111100 0
b10001 1
12
1;

#2440000
0!
0,
02
0;

#2450000
1!
1,
b100111011 0
b10000 1
12
1;

#2460000
0!
0,
02
0;

#2470000
1!
1,
b100111010 0
b1111 1
12
1;

#2480000
0!
0,
02
0;

#2490000
1!
1,
b100111001 0
b1110 1
12
1;

#2500000
0!
0,
02
0;

#2510000
1!
1,
b100111000 0
b1101 1
12
1;

#2520000
0!
0,
02
0;

#2530000
1!
1,
b100110111 0
b1100 1
12
1;

#2540000
0!
0,
02
0;

#2550000
1!
1,
b100110110 0
b1011 1
12
1;

#2560000
0!
0,
02
0;

#2570000
1!
1,
b100110101 0
b1010 1
12
1;

#2580000
0!
0,
02
0;

#2590000
1!
1,
b100110100 0
b1001 1
12
1;

#2600000
0!
0,
02
0;

#2610000
1!
1,
b100110011 0
b1000 1
12
1;

#2620000
0!
0,
02
0;

#2630000
1!
1,
b100110010 0
b111 1
12
1;

#2640000
0!
0,
02
0;

#2650000
1!
1,
b100110001 0
b110 1
12
1;

#2660000
0!
0,
02
0;

#2670000
1!
1,
b100110000 0
b101 1
12
1;

#2680000
0!
0,
02
0;

#2690000
1!
1,
b100101111 0
b100 1
12
1;

#2700000
0!
0,
02
0;

#2710000
1!
1,
b100101110 0
b11 1
12
1;

#2720000
0!
0,
02
0;

#2730000
1!
1,
b100101101 0
b10 1
12
1;

#2740000
0!
0,
02
0;

#2750000
1!
1,
b100101100 0
b1 1
12
1;

#2760000
0!
0,
02
0;

#2770000
1!
1,
b100101011 0
b0 1
12
1;

#2780000
0!
0,
02
0;

#2790000
1!
1$
1,
1/
b100101010 0
b11010 1
12
1;

#2800000
0!
0,
02
0;

#2810000
1!
0$
1,
0/
b100101001 0
b11001 1
12
1;

#2820000
0!
0,
02
0;

#2830000
1!
1,
b100101000 0
b11000 1
12
1;

#2840000
0!
0,
02
0;

#2850000
1!
1,
b100100111 0
b10111 1
12
1;

#2860000
0!
0,
02
0;

#2870000
1!
1,
b100100110 0
b10110 1
12
1;

#2880000
0!
0,
02
0;

#2890000
1!
1,
b100100101 0
b10101 1
12
1;

#2900000
0!
0,
02
0;

#2910000
1!
1,
b100100100 0
b10100 1
12
1;

#2920000
0!
0,
02
0;

#2930000
1!
1,
b100100011 0
b10011 1
12
1;

#2940000
0!
0,
02
0;

#2950000
1!
1,
b100100010 0
b10010 1
12
1;

#2960000
0!
0,
02
0;

#2970000
1!
1,
b100100001 0
b10001 1
12
1;

#2980000
0!
0,
02
0;

#2990000
1!
1,
b100100000 0
b10000 1
12
1;

#3000000
0!
0,
02
0;

#3010000
1!
1,
b100011111 0
b1111 1
12
1;

#3020000
0!
0,
02
0;

#3030000
1!
1,
b100011110 0
b1110 1
12
1;

#3040000
0!
0,
02
0;

#3050000
1!
1,
b100011101 0
b1101 1
12
1;

#3060000
0!
0,
02
0;

#3070000
1!
1,
b100011100 0
b1100 1
12
1;

#3080000
0!
0,
02
0;

#3090000
1!
1,
b100011011 0
b1011 1
12
1;

#3100000
0!
0,
02
0;

#3110000
1!
1,
b100011010 0
b1010 1
12
1;

#3120000
0!
0,
02
0;

#3130000
1!
1,
b100011001 0
b1001 1
12
1;

#3140000
0!
0,
02
0;

#3150000
1!
1,
b100011000 0
b1000 1
12
1;

#3160000
0!
0,
02
0;

#3170000
1!
1,
b100010111 0
b111 1
12
1;

#3180000
0!
0,
02
0;

#3190000
1!
1,
b100010110 0
b110 1
12
1;

#3200000
0!
0,
02
0;

#3210000
1!
1,
b100010101 0
b101 1
12
1;

#3220000
0!
0,
02
0;

#3230000
1!
1,
b100010100 0
b100 1
12
1;

#3240000
0!
0,
02
0;

#3250000
1!
1,
b100010011 0
b11 1
12
1;

#3260000
0!
0,
02
0;

#3270000
1!
1,
b100010010 0
b10 1
12
1;

#3280000
0!
0,
02
0;

#3290000
1!
1,
b100010001 0
b1 1
12
1;

#3300000
0!
0,
02
0;

#3310000
1!
1,
b100010000 0
b0 1
12
1;

#3320000
0!
0,
02
0;

#3330000
1!
1$
1,
1/
b100001111 0
b11010 1
12
1;

#3340000
0!
0,
02
0;

#3350000
1!
0$
1,
0/
b100001110 0
b11001 1
12
1;

#3360000
0!
0,
02
0;

#3370000
1!
1,
b100001101 0
b11000 1
12
1;

#3380000
0!
0,
02
0;

#3390000
1!
1,
b100001100 0
b10111 1
12
1;

#3400000
0!
0,
02
0;

#3410000
1!
1,
b100001011 0
b10110 1
12
1;

#3420000
0!
0,
02
0;

#3430000
1!
1,
b100001010 0
b10101 1
12
1;

#3440000
0!
0,
02
0;

#3450000
1!
1,
b100001001 0
b10100 1
12
1;

#3460000
0!
0,
02
0;

#3470000
1!
1,
b100001000 0
b10011 1
12
1;

#3480000
0!
0,
02
0;

#3490000
1!
1,
b100000111 0
b10010 1
12
1;

#3500000
0!
0,
02
0;

#3510000
1!
1,
b100000110 0
b10001 1
12
1;

#3520000
0!
0,
02
0;

#3530000
1!
1,
b100000101 0
b10000 1
12
1;

#3540000
0!
0,
02
0;

#3550000
1!
1,
b100000100 0
b1111 1
12
1;

#3560000
0!
0,
02
0;

#3570000
1!
1,
b100000011 0
b1110 1
12
1;

#3580000
0!
0,
02
0;

#3590000
1!
1,
b100000010 0
b1101 1
12
1;

#3600000
0!
0,
02
0;

#3610000
1!
1,
b100000001 0
b1100 1
12
1;

#3620000
0!
0,
02
0;

#3630000
1!
1,
b100000000 0
b1011 1
12
1;

#3640000
0!
0,
02
0;

#3650000
1!
1,
b11111111 0
b1010 1
12
1;

#3660000
0!
0,
02
0;

#3670000
1!
1,
b11111110 0
b1001 1
12
1;

#3680000
0!
0,
02
0;

#3690000
1!
1,
b11111101 0
b1000 1
12
1;

#3700000
0!
0,
02
0;

#3710000
1!
1,
b11111100 0
b111 1
12
1;

#3720000
0!
0,
02
0;

#3730000
1!
1,
b11111011 0
b110 1
12
1;

#3740000
0!
0,
02
0;

#3750000
1!
1,
b11111010 0
b101 1
12
1;

#3760000
0!
0,
02
0;

#3770000
1!
1,
b11111001 0
b100 1
12
1;

#3780000
0!
0,
02
0;

#3790000
1!
1,
b11111000 0
b11 1
12
1;

#3800000
0!
0,
02
0;

#3810000
1!
1,
b11110111 0
b10 1
12
1;

#3820000
0!
0,
02
0;

#3830000
1!
1,
b11110110 0
b1 1
12
1;

#3840000
0!
0,
02
0;

#3850000
1!
1,
b11110101 0
b0 1
12
1;

#3860000
0!
0,
02
0;

#3870000
1!
1$
1,
1/
b11110100 0
b11010 1
12
1;

#3880000
0!
0,
02
0;

#3890000
1!
0$
1,
0/
b11110011 0
b11001 1
12
1;

#3900000
0!
0,
02
0;

#3910000
1!
1,
b11110010 0
b11000 1
12
1;

#3920000
0!
0,
02
0;

#3930000
1!
1,
b11110001 0
b10111 1
12
1;

#3940000
0!
0,
02
0;

#3950000
1!
1,
b11110000 0
b10110 1
12
1;

#3960000
0!
0,
02
0;

#3970000
1!
1,
b11101111 0
b10101 1
12
1;

#3980000
0!
0,
02
0;

#3990000
1!
1,
b11101110 0
b10100 1
12
1;

#4000000
0!
0,
02
0;

#4010000
1!
1,
b11101101 0
b10011 1
12
1;

#4020000
0!
0,
02
0;

#4030000
1!
1,
b11101100 0
b10010 1
12
1;

#4040000
0!
0,
02
0;

#4050000
1!
1,
b11101011 0
b10001 1
12
1;

#4060000
0!
0,
02
0;

#4070000
1!
1,
b11101010 0
b10000 1
12
1;

#4080000
0!
0,
02
0;

#4090000
1!
1,
b11101001 0
b1111 1
12
1;

#4100000
0!
0,
02
0;

#4110000
1!
1,
b11101000 0
b1110 1
12
1;

#4120000
0!
0,
02
0;

#4130000
1!
1,
b11100111 0
b1101 1
12
1;

#4140000
0!
0,
02
0;

#4150000
1!
1,
b11100110 0
b1100 1
12
1;

#4160000
0!
0,
02
0;

#4170000
1!
1,
b11100101 0
b1011 1
12
1;

#4180000
0!
0,
02
0;

#4190000
1!
1,
b11100100 0
b1010 1
12
1;

#4200000
0!
0,
02
0;

#4210000
1!
1,
b11100011 0
b1001 1
12
1;

#4220000
0!
0,
02
0;

#4230000
1!
1,
b11100010 0
b1000 1
12
1;

#4240000
0!
0,
02
0;

#4250000
1!
1,
b11100001 0
b111 1
12
1;

#4260000
0!
0,
02
0;

#4270000
1!
1,
b11100000 0
b110 1
12
1;

#4280000
0!
0,
02
0;

#4290000
1!
1,
b11011111 0
b101 1
12
1;

#4300000
0!
0,
02
0;

#4310000
1!
1,
b11011110 0
b100 1
12
1;

#4320000
0!
0,
02
0;

#4330000
1!
1,
b11011101 0
b11 1
12
1;

#4340000
0!
0,
02
0;

#4350000
1!
1,
b11011100 0
b10 1
12
1;

#4360000
0!
0,
02
0;

#4370000
1!
1,
b11011011 0
b1 1
12
1;

#4380000
0!
0,
02
0;

#4390000
1!
1,
b11011010 0
b0 1
12
1;

#4400000
0!
0,
02
0;

#4410000
1!
1$
1,
1/
b11011001 0
b11010 1
12
1;

#4420000
0!
0,
02
0;

#4430000
1!
0$
1,
0/
b11011000 0
b11001 1
12
1;

#4440000
0!
0,
02
0;

#4450000
1!
1,
b11010111 0
b11000 1
12
1;

#4460000
0!
0,
02
0;

#4470000
1!
1,
b11010110 0
b10111 1
12
1;

#4480000
0!
0,
02
0;

#4490000
1!
1,
b11010101 0
b10110 1
12
1;

#4500000
0!
0,
02
0;

#4510000
1!
1,
b11010100 0
b10101 1
12
1;

#4520000
0!
0,
02
0;

#4530000
1!
1,
b11010011 0
b10100 1
12
1;

#4540000
0!
0,
02
0;

#4550000
1!
1,
b11010010 0
b10011 1
12
1;

#4560000
0!
0,
02
0;

#4570000
1!
1,
b11010001 0
b10010 1
12
1;

#4580000
0!
0,
02
0;

#4590000
1!
1,
b11010000 0
b10001 1
12
1;

#4600000
0!
0,
02
0;

#4610000
1!
1,
b11001111 0
b10000 1
12
1;

#4620000
0!
0,
02
0;

#4630000
1!
1,
b11001110 0
b1111 1
12
1;

#4640000
0!
0,
02
0;

#4650000
1!
1,
b11001101 0
b1110 1
12
1;

#4660000
0!
0,
02
0;

#4670000
1!
1,
b11001100 0
b1101 1
12
1;

#4680000
0!
0,
02
0;

#4690000
1!
1,
b11001011 0
b1100 1
12
1;

#4700000
0!
0,
02
0;

#4710000
1!
1,
b11001010 0
b1011 1
12
1;

#4720000
0!
0,
02
0;

#4730000
1!
1,
b11001001 0
b1010 1
12
1;

#4740000
0!
0,
02
0;

#4750000
1!
1,
b11001000 0
b1001 1
12
1;

#4760000
0!
0,
02
0;

#4770000
1!
1,
b11000111 0
b1000 1
12
1;

#4780000
0!
0,
02
0;

#4790000
1!
1,
b11000110 0
b111 1
12
1;

#4800000
0!
0,
02
0;

#4810000
1!
1,
b11000101 0
b110 1
12
1;

#4820000
0!
0,
02
0;

#4830000
1!
1,
b11000100 0
b101 1
12
1;

#4840000
0!
0,
02
0;

#4850000
1!
1,
b11000011 0
b100 1
12
1;

#4860000
0!
0,
02
0;

#4870000
1!
1,
b11000010 0
b11 1
12
1;

#4880000
0!
0,
02
0;

#4890000
1!
1,
b11000001 0
b10 1
12
1;

#4900000
0!
0,
02
0;

#4910000
1!
1,
b11000000 0
b1 1
12
1;

#4920000
0!
0,
02
0;

#4930000
1!
1,
b10111111 0
b0 1
12
1;

#4940000
0!
0,
02
0;

#4950000
1!
1$
1,
1/
b10111110 0
b11010 1
12
1;

#4960000
0!
0,
02
0;

#4970000
1!
0$
1,
0/
b10111101 0
b11001 1
12
1;

#4980000
0!
0,
02
0;

#4990000
1!
1,
b10111100 0
b11000 1
12
1;

#5000000
0!
0,
02
0;

#5010000
1!
1,
b10111011 0
b10111 1
12
1;

#5020000
0!
0,
02
0;

#5030000
1!
1,
b10111010 0
b10110 1
12
1;

#5040000
0!
0,
02
0;

#5050000
1!
1,
b10111001 0
b10101 1
12
1;

#5060000
0!
0,
02
0;

#5070000
1!
1,
b10111000 0
b10100 1
12
1;

#5080000
0!
0,
02
0;

#5090000
1!
1,
b10110111 0
b10011 1
12
1;

#5100000
0!
0,
02
0;

#5110000
1!
1,
b10110110 0
b10010 1
12
1;

#5120000
0!
0,
02
0;

#5130000
1!
1,
b10110101 0
b10001 1
12
1;

#5140000
0!
0,
02
0;

#5150000
1!
1,
b10110100 0
b10000 1
12
1;

#5160000
0!
0,
02
0;

#5170000
1!
1,
b10110011 0
b1111 1
12
1;

#5180000
0!
0,
02
0;

#5190000
1!
1,
b10110010 0
b1110 1
12
1;

#5200000
0!
0,
02
0;

#5210000
1!
1,
b10110001 0
b1101 1
12
1;

#5220000
0!
0,
02
0;

#5230000
1!
1,
b10110000 0
b1100 1
12
1;

#5240000
0!
0,
02
0;

#5250000
1!
1,
b10101111 0
b1011 1
12
1;

#5260000
0!
0,
02
0;

#5270000
1!
1,
b10101110 0
b1010 1
12
1;

#5280000
0!
0,
02
0;

#5290000
1!
1,
b10101101 0
b1001 1
12
1;

#5300000
0!
0,
02
0;

#5310000
1!
1,
b10101100 0
b1000 1
12
1;

#5320000
0!
0,
02
0;

#5330000
1!
1,
b10101011 0
b111 1
12
1;

#5340000
0!
0,
02
0;

#5350000
1!
1,
b10101010 0
b110 1
12
1;

#5360000
0!
0,
02
0;

#5370000
1!
1,
b10101001 0
b101 1
12
1;

#5380000
0!
0,
02
0;

#5390000
1!
1,
b10101000 0
b100 1
12
1;

#5400000
0!
0,
02
0;

#5410000
1!
1,
b10100111 0
b11 1
12
1;

#5420000
0!
0,
02
0;

#5430000
1!
1,
b10100110 0
b10 1
12
1;

#5440000
0!
0,
02
0;

#5450000
1!
1,
b10100101 0
b1 1
12
1;

#5460000
0!
0,
02
0;

#5470000
1!
1,
b10100100 0
b0 1
12
1;

#5480000
0!
0,
02
0;

#5490000
1!
1$
1,
1/
b10100011 0
b11010 1
12
1;

#5500000
0!
0,
02
0;

#5510000
1!
0$
1,
0/
b10100010 0
b11001 1
12
1;

#5520000
0!
0,
02
0;

#5530000
1!
1,
b10100001 0
b11000 1
12
1;

#5540000
0!
0,
02
0;

#5550000
1!
1,
b10100000 0
b10111 1
12
1;

#5560000
0!
0,
02
0;

#5570000
1!
1,
b10011111 0
b10110 1
12
1;

#5580000
0!
0,
02
0;

#5590000
1!
1,
b10011110 0
b10101 1
12
1;

#5600000
0!
0,
02
0;

#5610000
1!
1,
b10011101 0
b10100 1
12
1;

#5620000
0!
0,
02
0;

#5630000
1!
1,
b10011100 0
b10011 1
12
1;

#5640000
0!
0,
02
0;

#5650000
1!
1,
b10011011 0
b10010 1
12
1;

#5660000
0!
0,
02
0;

#5670000
1!
1,
b10011010 0
b10001 1
12
1;

#5680000
0!
0,
02
0;

#5690000
1!
1,
b10011001 0
b10000 1
12
1;

#5700000
0!
0,
02
0;

#5710000
1!
1,
b10011000 0
b1111 1
12
1;

#5720000
0!
0,
02
0;

#5730000
1!
1,
b10010111 0
b1110 1
12
1;

#5740000
0!
0,
02
0;

#5750000
1!
1,
b10010110 0
b1101 1
12
1;

#5760000
0!
0,
02
0;

#5770000
1!
1,
b10010101 0
b1100 1
12
1;

#5780000
0!
0,
02
0;

#5790000
1!
1,
b10010100 0
b1011 1
12
1;

#5800000
0!
0,
02
0;

#5810000
1!
1,
b10010011 0
b1010 1
12
1;

#5820000
0!
0,
02
0;

#5830000
1!
1,
b10010010 0
b1001 1
12
1;

#5840000
0!
0,
02
0;

#5850000
1!
1,
b10010001 0
b1000 1
12
1;

#5860000
0!
0,
02
0;

#5870000
1!
1,
b10010000 0
b111 1
12
1;

#5880000
0!
0,
02
0;

#5890000
1!
1,
b10001111 0
b110 1
12
1;

#5900000
0!
0,
02
0;

#5910000
1!
1,
b10001110 0
b101 1
12
1;

#5920000
0!
0,
02
0;

#5930000
1!
1,
b10001101 0
b100 1
12
1;

#5940000
0!
0,
02
0;

#5950000
1!
1,
b10001100 0
b11 1
12
1;

#5960000
0!
0,
02
0;

#5970000
1!
1,
b10001011 0
b10 1
12
1;

#5980000
0!
0,
02
0;

#5990000
1!
1,
b10001010 0
b1 1
12
1;

#6000000
0!
0,
02
0;

#6010000
1!
1,
b10001001 0
b0 1
12
1;

#6020000
0!
0,
02
0;

#6030000
1!
1$
1,
1/
b10001000 0
b11010 1
12
1;

#6040000
0!
0,
02
0;

#6050000
1!
0$
1,
0/
b10000111 0
b11001 1
12
1;

#6060000
0!
0,
02
0;

#6070000
1!
1,
b10000110 0
b11000 1
12
1;

#6080000
0!
0,
02
0;

#6090000
1!
1,
b10000101 0
b10111 1
12
1;

#6100000
0!
0,
02
0;

#6110000
1!
1,
b10000100 0
b10110 1
12
1;

#6120000
0!
0,
02
0;

#6130000
1!
1,
b10000011 0
b10101 1
12
1;

#6140000
0!
0,
02
0;

#6150000
1!
1,
b10000010 0
b10100 1
12
1;

#6160000
0!
0,
02
0;

#6170000
1!
1,
b10000001 0
b10011 1
12
1;

#6180000
0!
0,
02
0;

#6190000
1!
1,
b10000000 0
b10010 1
12
1;

#6200000
0!
0,
02
0;

